{
	"db": {
		"url": "mongodb://localhost:27017",
		"main_db_name": "main"
	},

	"items": {
		"collection_name": "items",
		"metadata_collection": "metadata",
		"specs_doc_id": "specs",
		"categories_doc_id": "categories",
		"img_exts": [".webp", ".jpeg", ".jpg", ".png"]
	},

	"users": {
		"collection_name": "users",
		"min_pass_length": 4,
		"max_pass_length": 64,
		"salt_length": 128,
		"reg_token_length": 64,
		"session_token_length": 64
	}
}